%YAML 1.1
%TAG !u! tag:unity3d.com,2011:
--- !u!74 &7400000
AnimationClip:
  m_ObjectHideFlags: 0
  m_PrefabParentObject: {fileID: 0}
  m_PrefabInternal: {fileID: 0}
  m_Name: IntroductioLevelOne
  serializedVersion: 6
  m_Legacy: 0
  m_Compressed: 0
  m_UseHighQualityCurve: 1
  m_RotationCurves: []
  m_CompressedRotationCurves: []
  m_EulerCurves: []
  m_PositionCurves: []
  m_ScaleCurves: []
  m_FloatCurves:
  - curve:
      serializedVersion: 2
      m_Curve:
      - time: 0
        value: 1
        inSlope: 0
        outSlope: 0
        tangentMode: 10
      - time: 1
        value: 1
        inSlope: 0
        outSlope: 0
        tangentMode: 10
      m_PreInfinity: 2
      m_PostInfinity: 2
      m_RotationOrder: 4
    attribute: m_Color.r
    path: PopoStudio
    classID: 114
    script: {fileID: -765806418, guid: f5f67c52d1564df4a8936ccd202a3bd8, type: 3}
  - curve:
      serializedVersion: 2
      m_Curve:
      - time: 0
        value: 1
        inSlope: 0
        outSlope: 0
        tangentMode: 10
      - time: 1
        value: 1
        inSlope: 0
        outSlope: 0
        tangentMode: 10
      m_PreInfinity: 2
      m_PostInfinity: 2
      m_RotationOrder: 4
    attribute: m_Color.g
    path: PopoStudio
    classID: 114
    script: {fileID: -765806418, guid: f5f67c52d1564df4a8936ccd202a3bd8, type: 3}
  - curve:
      serializedVersion: 2
      m_Curve:
      - time: 0
        value: 1
        inSlope: 0
        outSlope: 0
        tangentMode: 10
      - time: 1
        value: 1
        inSlope: 0
        outSlope: 0
        tangentMode: 10
      m_PreInfinity: 2
      m_PostInfinity: 2
      m_RotationOrder: 4
    attribute: m_Color.b
    path: PopoStudio
    classID: 114
    script: {fileID: -765806418, guid: f5f67c52d1564df4a8936ccd202a3bd8, type: 3}
  - curve:
      serializedVersion: 2
      m_Curve:
      - time: 0
        value: 1
        inSlope: 0
        outSlope: 0
        tangentMode: 10
      - time: 1
        value: 1
        inSlope: 0
        outSlope: 0
        tangentMode: 10
      - time: 25.083334
        value: 1
        inSlope: -0.10101012
        outSlope: -0.10101012
        tangentMode: 10
      - time: 30.033333
        value: 0
        inSlope: -0.20202024
        outSlope: -0.20202024
        tangentMode: 10
      m_PreInfinity: 2
      m_PostInfinity: 2
      m_RotationOrder: 4
    attribute: m_Color.a
    path: PopoStudio
    classID: 114
    script: {fileID: -765806418, guid: f5f67c52d1564df4a8936ccd202a3bd8, type: 3}
  - curve:
      serializedVersion: 2
      m_Curve:
      - time: 0
        value: 0.09019608
        inSlope: 0.9098039
        outSlope: 0.9098039
        tangentMode: 10
      - time: 1
        value: 1
        inSlope: 0.45490196
        outSlope: 0.45490196
        tangentMode: 10
      - time: 2
        value: 1
        inSlope: -0.45490196
        outSlope: -0.45490196
        tangentMode: 10
      - time: 3
        value: 0.09019608
        inSlope: -0.9098039
        outSlope: -0.9098039
        tangentMode: 10
      m_PreInfinity: 2
      m_PostInfinity: 2
      m_RotationOrder: 4
    attribute: m_Color.r
    path: PopoStudio/Image
    classID: 114
    script: {fileID: -765806418, guid: f5f67c52d1564df4a8936ccd202a3bd8, type: 3}
  - curve:
      serializedVersion: 2
      m_Curve:
      - time: 0
        value: 0.09019608
        inSlope: 0.9098039
        outSlope: 0.9098039
        tangentMode: 10
      - time: 1
        value: 1
        inSlope: 0.45490196
        outSlope: 0.45490196
        tangentMode: 10
      - time: 2
        value: 1
        inSlope: -0.45490196
        outSlope: -0.45490196
        tangentMode: 10
      - time: 3
        value: 0.09019608
        inSlope: -0.9098039
        outSlope: -0.9098039
        tangentMode: 10
      m_PreInfinity: 2
      m_PostInfinity: 2
      m_RotationOrder: 4
    attribute: m_Color.g
    path: PopoStudio/Image
    classID: 114
    script: {fileID: -765806418, guid: f5f67c52d1564df4a8936ccd202a3bd8, type: 3}
  - curve:
      serializedVersion: 2
      m_Curve:
      - time: 0
        value: 0.09411766
        inSlope: 0.90588236
        outSlope: 0.90588236
        tangentMode: 10
      - time: 1
        value: 1
        inSlope: 0.45294118
        outSlope: 0.45294118
        tangentMode: 10
      - time: 2
        value: 1
        inSlope: -0.45294118
        outSlope: -0.45294118
        tangentMode: 10
      - time: 3
        value: 0.09411766
        inSlope: -0.90588236
        outSlope: -0.90588236
        tangentMode: 10
      m_PreInfinity: 2
      m_PostInfinity: 2
      m_RotationOrder: 4
    attribute: m_Color.b
    path: PopoStudio/Image
    classID: 114
    script: {fileID: -765806418, guid: f5f67c52d1564df4a8936ccd202a3bd8, type: 3}
  - curve:
      serializedVersion: 2
      m_Curve:
      - time: 0
        value: 1
        inSlope: 0
        outSlope: 0
        tangentMode: 10
      - time: 1
        value: 1
        inSlope: 0
        outSlope: 0
        tangentMode: 10
      m_PreInfinity: 2
      m_PostInfinity: 2
      m_RotationOrder: 4
    attribute: m_Color.a
    path: PopoStudio/Image
    classID: 114
    script: {fileID: -765806418, guid: f5f67c52d1564df4a8936ccd202a3bd8, type: 3}
  - curve:
      serializedVersion: 2
      m_Curve:
      - time: 0
        value: 0.09019608
        inSlope: 0
        outSlope: 0
        tangentMode: 10
      - time: 1
        value: 0.09019608
        inSlope: 0
        outSlope: 0
        tangentMode: 10
      - time: 2
        value: 0.09019608
        inSlope: 0
        outSlope: 0
        tangentMode: 10
      - time: 2.5
        value: 0.09019608
        inSlope: 0
        outSlope: 0
        tangentMode: 10
      - time: 2.9333334
        value: 0.09019608
        inSlope: 0
        outSlope: 0
        tangentMode: 10
      - time: 3
        value: 0.09019608
        inSlope: 0.9098039
        outSlope: 0.9098039
        tangentMode: 10
      - time: 3.5
        value: 1
        inSlope: 0.9098039
        outSlope: 0.9098039
        tangentMode: 10
      - time: 4.4166665
        value: 1
        inSlope: -0.41990945
        outSlope: -0.41990945
        tangentMode: 10
      - time: 5.5
        value: 0.09019608
        inSlope: -0.41990945
        outSlope: -0.41990945
        tangentMode: 10
      - time: 5.866667
        value: 0.09019608
        inSlope: 0
        outSlope: 0
        tangentMode: 10
      m_PreInfinity: 2
      m_PostInfinity: 2
      m_RotationOrder: 4
    attribute: m_Color.r
    path: PopoStudio/Image (1)
    classID: 114
    script: {fileID: -765806418, guid: f5f67c52d1564df4a8936ccd202a3bd8, type: 3}
  - curve:
      serializedVersion: 2
      m_Curve:
      - time: 0
        value: 0.09019608
        inSlope: 0
        outSlope: 0
        tangentMode: 10
      - time: 1
        value: 0.09019608
        inSlope: 0
        outSlope: 0
        tangentMode: 10
      - time: 2
        value: 0.09019608
        inSlope: 0
        outSlope: 0
        tangentMode: 10
      - time: 2.5
        value: 0.09019608
        inSlope: 0
        outSlope: 0
        tangentMode: 10
      - time: 2.9333334
        value: 0.09019608
        inSlope: 0
        outSlope: 0
        tangentMode: 10
      - time: 3
        value: 0.09019608
        inSlope: 0.9098039
        outSlope: 0.9098039
        tangentMode: 10
      - time: 3.5
        value: 1
        inSlope: 0.9098039
        outSlope: 0.9098039
        tangentMode: 10
      - time: 4.4166665
        value: 1
        inSlope: -0.41990945
        outSlope: -0.41990945
        tangentMode: 10
      - time: 5.5
        value: 0.09019608
        inSlope: -0.41990945
        outSlope: -0.41990945
        tangentMode: 10
      - time: 5.866667
        value: 0.09019608
        inSlope: 0
        outSlope: 0
        tangentMode: 10
      m_PreInfinity: 2
      m_PostInfinity: 2
      m_RotationOrder: 4
    attribute: m_Color.g
    path: PopoStudio/Image (1)
    classID: 114
    script: {fileID: -765806418, guid: f5f67c52d1564df4a8936ccd202a3bd8, type: 3}
  - curve:
      serializedVersion: 2
      m_Curve:
      - time: 0
        value: 0.09411766
        inSlope: 0
        outSlope: 0
        tangentMode: 10
      - time: 1
        value: 0.09411766
        inSlope: 0
        outSlope: 0
        tangentMode: 10
      - time: 2
        value: 0.09411766
        inSlope: 0
        outSlope: 0
        tangentMode: 10
      - time: 2.5
        value: 0.09411766
        inSlope: 0
        outSlope: 0
        tangentMode: 10
      - time: 2.9333334
        value: 0.09411766
        inSlope: 0
        outSlope: 0
        tangentMode: 10
      - time: 3
        value: 0.09411766
        inSlope: 0.90588236
        outSlope: 0.90588236
        tangentMode: 10
      - time: 3.5
        value: 1
        inSlope: 0.90588236
        outSlope: 0.90588236
        tangentMode: 10
      - time: 4.4166665
        value: 1
        inSlope: -0.4180995
        outSlope: -0.4180995
        tangentMode: 10
      - time: 5.5
        value: 0.09411766
        inSlope: -0.4180995
        outSlope: -0.4180995
        tangentMode: 10
      - time: 5.866667
        value: 0.09411766
        inSlope: 0
        outSlope: 0
        tangentMode: 10
      m_PreInfinity: 2
      m_PostInfinity: 2
      m_RotationOrder: 4
    attribute: m_Color.b
    path: PopoStudio/Image (1)
    classID: 114
    script: {fileID: -765806418, guid: f5f67c52d1564df4a8936ccd202a3bd8, type: 3}
  - curve:
      serializedVersion: 2
      m_Curve:
      - time: 0
        value: 1
        inSlope: 0
        outSlope: 0
        tangentMode: 10
      - time: 3
        value: 1
        inSlope: 0
        outSlope: 0
        tangentMode: 10
      m_PreInfinity: 2
      m_PostInfinity: 2
      m_RotationOrder: 4
    attribute: m_Color.a
    path: PopoStudio/Image (1)
    classID: 114
    script: {fileID: -765806418, guid: f5f67c52d1564df4a8936ccd202a3bd8, type: 3}
  - curve:
      serializedVersion: 2
      m_Curve:
      - time: 0
        value: 300
        inSlope: 0
        outSlope: 0
        tangentMode: 10
      m_PreInfinity: 2
      m_PostInfinity: 2
      m_RotationOrder: 4
    attribute: m_AnchoredPosition.y
    path: PopoStudio/Image (1)
    classID: 224
    script: {fileID: 0}
  - curve:
      serializedVersion: 2
      m_Curve:
      - time: 0
        value: 0.09019608
        inSlope: 0
        outSlope: 0
        tangentMode: 10
      - time: 1
        value: 0.09019608
        inSlope: 0
        outSlope: 0
        tangentMode: 10
      - time: 2
        value: 0.09019608
        inSlope: 0
        outSlope: 0
        tangentMode: 10
      - time: 2.5
        value: 0.09019608
        inSlope: 0
        outSlope: 0
        tangentMode: 10
      - time: 4.4166665
        value: 0.09019608
        inSlope: 0
        outSlope: 0
        tangentMode: 10
      - time: 5.5
        value: 0.09019608
        inSlope: 1.2406412
        outSlope: 1.2406412
        tangentMode: 10
      - time: 5.866667
        value: 1
        inSlope: 1.1428128
        outSlope: 1.1428128
        tangentMode: 10
      - time: 10.516666
        value: 0.09019608
        inSlope: -0.09782839
        outSlope: -0.09782839
        tangentMode: 10
      - time: 10.533334
        value: 0.09019608
        inSlope: 0
        outSlope: 0
        tangentMode: 10
      - time: 10.55
        value: 0.09019608
        inSlope: 0
        outSlope: 0
        tangentMode: 10
      - time: 10.65
        value: 0.09019608
        inSlope: 0
        outSlope: 0
        tangentMode: 10
      - time: 11.766666
        value: 0.09019608
        inSlope: 27.292973
        outSlope: 27.292973
        tangentMode: 10
      - time: 11.783334
        value: 1
        inSlope: 26.83036
        outSlope: 26.83036
        tangentMode: 10
      - time: 12.766666
        value: 0.09019608
        inSlope: -0.925225
        outSlope: -0.925225
        tangentMode: 10
      m_PreInfinity: 2
      m_PostInfinity: 2
      m_RotationOrder: 4
    attribute: m_Color.r
    path: PopoStudio/Image (2)
    classID: 114
    script: {fileID: -765806418, guid: f5f67c52d1564df4a8936ccd202a3bd8, type: 3}
  - curve:
      serializedVersion: 2
      m_Curve:
      - time: 0
        value: 0.09019608
        inSlope: 0
        outSlope: 0
        tangentMode: 10
      - time: 1
        value: 0.09019608
        inSlope: 0
        outSlope: 0
        tangentMode: 10
      - time: 2
        value: 0.09019608
        inSlope: 0
        outSlope: 0
        tangentMode: 10
      - time: 2.5
        value: 0.09019608
        inSlope: 0
        outSlope: 0
        tangentMode: 10
      - time: 4.4166665
        value: 0.09019608
        inSlope: 0
        outSlope: 0
        tangentMode: 10
      - time: 5.5
        value: 0.09019608
        inSlope: 1.2406412
        outSlope: 1.2406412
        tangentMode: 10
      - time: 5.866667
        value: 1
        inSlope: 1.1428128
        outSlope: 1.1428128
        tangentMode: 10
      - time: 10.516666
        value: 0.09019608
        inSlope: -0.09782839
        outSlope: -0.09782839
        tangentMode: 10
      - time: 10.533334
        value: 0.09019608
        inSlope: 0
        outSlope: 0
        tangentMode: 10
      - time: 10.55
        value: 0.09019608
        inSlope: 0
        outSlope: 0
        tangentMode: 10
      - time: 10.65
        value: 0.09019608
        inSlope: 0
        outSlope: 0
        tangentMode: 10
      - time: 11.766666
        value: 0.09019608
        inSlope: 27.292973
        outSlope: 27.292973
        tangentMode: 10
      - time: 11.783334
        value: 1
        inSlope: 26.83036
        outSlope: 26.83036
        tangentMode: 10
      - time: 12.766666
        value: 0.09019608
        inSlope: -0.925225
        outSlope: -0.925225
        tangentMode: 10
      m_PreInfinity: 2
      m_PostInfinity: 2
      m_RotationOrder: 4
    attribute: m_Color.g
    path: PopoStudio/Image (2)
    classID: 114
    script: {fileID: -765806418, guid: f5f67c52d1564df4a8936ccd202a3bd8, type: 3}
  - curve:
      serializedVersion: 2
      m_Curve:
      - time: 0
        value: 0.09411766
        inSlope: 0
        outSlope: 0
        tangentMode: 10
      - time: 1
        value: 0.09411766
        inSlope: 0
        outSlope: 0
        tangentMode: 10
      - time: 2
        value: 0.09411766
        inSlope: 0
        outSlope: 0
        tangentMode: 10
      - time: 2.5
        value: 0.09411766
        inSlope: 0
        outSlope: 0
        tangentMode: 10
      - time: 4.4166665
        value: 0.09411766
        inSlope: 0
        outSlope: 0
        tangentMode: 10
      - time: 5.5
        value: 0.09411766
        inSlope: 1.2352937
        outSlope: 1.2352937
        tangentMode: 10
      - time: 5.866667
        value: 1
        inSlope: 1.137887
        outSlope: 1.137887
        tangentMode: 10
      - time: 10.516666
        value: 0.09411766
        inSlope: -0.097406715
        outSlope: -0.097406715
        tangentMode: 10
      - time: 10.533334
        value: 0.09411766
        inSlope: 0
        outSlope: 0
        tangentMode: 10
      - time: 10.55
        value: 0.09411766
        inSlope: 0
        outSlope: 0
        tangentMode: 10
      - time: 10.65
        value: 0.09411766
        inSlope: 0
        outSlope: 0
        tangentMode: 10
      - time: 11.766666
        value: 0.09411766
        inSlope: 27.175331
        outSlope: 27.175331
        tangentMode: 10
      - time: 11.783334
        value: 1
        inSlope: 26.714712
        outSlope: 26.714712
        tangentMode: 10
      - time: 12.766666
        value: 0.09411766
        inSlope: -0.92123693
        outSlope: -0.92123693
        tangentMode: 10
      m_PreInfinity: 2
      m_PostInfinity: 2
      m_RotationOrder: 4
    attribute: m_Color.b
    path: PopoStudio/Image (2)
    classID: 114
    script: {fileID: -765806418, guid: f5f67c52d1564df4a8936ccd202a3bd8, type: 3}
  - curve:
      serializedVersion: 2
      m_Curve:
      - time: 0
        value: 1
        inSlope: 0
        outSlope: 0
        tangentMode: 10
      - time: 5.5
        value: 1
        inSlope: 0
        outSlope: 0
        tangentMode: 10
      - time: 5.866667
        value: 1
        inSlope: 0
        outSlope: 0
        tangentMode: 10
      m_PreInfinity: 2
      m_PostInfinity: 2
      m_RotationOrder: 4
    attribute: m_Color.a
    path: PopoStudio/Image (2)
    classID: 114
    script: {fileID: -765806418, guid: f5f67c52d1564df4a8936ccd202a3bd8, type: 3}
  - curve:
      serializedVersion: 2
      m_Curve:
      - time: 0
        value: 0
        inSlope: 0.09019608
        outSlope: 0.09019608
        tangentMode: 10
      - time: 1
        value: 0.09019608
        inSlope: 0.04509804
        outSlope: 0.04509804
        tangentMode: 10
      - time: 1.9833333
        value: 0.09019608
        inSlope: 0
        outSlope: 0
        tangentMode: 10
      - time: 3
        value: 0.09019608
        inSlope: 0
        outSlope: 0
        tangentMode: 10
      - time: 10.533334
        value: 0.09019608
        inSlope: 0
        outSlope: 0
        tangentMode: 10
      - time: 11.783334
        value: 0.09019608
        inSlope: 0
        outSlope: 0
        tangentMode: 10
      - time: 12.75
        value: 0.09019608
        inSlope: 27.294535
        outSlope: 27.294535
        tangentMode: 10
      - time: 12.766666
        value: 1
        inSlope: 27.235456
        outSlope: 27.235456
        tangentMode: 10
      - time: 20.466667
        value: 0.09019608
        inSlope: -0.11815634
        outSlope: -0.11815634
        tangentMode: 10
      m_PreInfinity: 2
      m_PostInfinity: 2
      m_RotationOrder: 4
    attribute: m_Color.r
    path: PopoStudio/Image (3)
    classID: 114
    script: {fileID: -765806418, guid: f5f67c52d1564df4a8936ccd202a3bd8, type: 3}
  - curve:
      serializedVersion: 2
      m_Curve:
      - time: 0
        value: 0
        inSlope: 0.09019608
        outSlope: 0.09019608
        tangentMode: 10
      - time: 1
        value: 0.09019608
        inSlope: 0.04509804
        outSlope: 0.04509804
        tangentMode: 10
      - time: 1.9833333
        value: 0.09019608
        inSlope: 0
        outSlope: 0
        tangentMode: 10
      - time: 3
        value: 0.09019608
        inSlope: 0
        outSlope: 0
        tangentMode: 10
      - time: 10.533334
        value: 0.09019608
        inSlope: 0
        outSlope: 0
        tangentMode: 10
      - time: 11.783334
        value: 0.09019608
        inSlope: 0
        outSlope: 0
        tangentMode: 10
      - time: 12.75
        value: 0.09019608
        inSlope: 27.294535
        outSlope: 27.294535
        tangentMode: 10
      - time: 12.766666
        value: 1
        inSlope: 27.235456
        outSlope: 27.235456
        tangentMode: 10
      - time: 20.466667
        value: 0.09019608
        inSlope: -0.11815634
        outSlope: -0.11815634
        tangentMode: 10
      m_PreInfinity: 2
      m_PostInfinity: 2
      m_RotationOrder: 4
    attribute: m_Color.g
    path: PopoStudio/Image (3)
    classID: 114
    script: {fileID: -765806418, guid: f5f67c52d1564df4a8936ccd202a3bd8, type: 3}
  - curve:
      serializedVersion: 2
      m_Curve:
      - time: 0
        value: 0
        inSlope: 0.09411766
        outSlope: 0.09411766
        tangentMode: 10
      - time: 1
        value: 0.09411766
        inSlope: 0.04705883
        outSlope: 0.04705883
        tangentMode: 10
      - time: 1.9833333
        value: 0.09411766
        inSlope: 0
        outSlope: 0
        tangentMode: 10
      - time: 3
        value: 0.09411766
        inSlope: 0
        outSlope: 0
        tangentMode: 10
      - time: 10.533334
        value: 0.09411766
        inSlope: 0
        outSlope: 0
        tangentMode: 10
      - time: 11.783334
        value: 0.09411766
        inSlope: 0
        outSlope: 0
        tangentMode: 10
      - time: 12.75
        value: 0.09411766
        inSlope: 27.176886
        outSlope: 27.176886
        tangentMode: 10
      - time: 12.766666
        value: 1
        inSlope: 27.118063
        outSlope: 27.118063
        tangentMode: 10
      - time: 20.466667
        value: 0.09411766
        inSlope: -0.117647044
        outSlope: -0.117647044
        tangentMode: 10
      m_PreInfinity: 2
      m_PostInfinity: 2
      m_RotationOrder: 4
    attribute: m_Color.b
    path: PopoStudio/Image (3)
    classID: 114
    script: {fileID: -765806418, guid: f5f67c52d1564df4a8936ccd202a3bd8, type: 3}
  - curve:
      serializedVersion: 2
      m_Curve:
      - time: 0
        value: 0
        inSlope: 0.07832898
        outSlope: 0.07832898
        tangentMode: 10
      - time: 12.766666
        value: 1
        inSlope: 0.07832898
        outSlope: 0.07832898
        tangentMode: 10
      m_PreInfinity: 2
      m_PostInfinity: 2
      m_RotationOrder: 4
    attribute: m_Color.a
    path: PopoStudio/Image (3)
    classID: 114
    script: {fileID: -765806418, guid: f5f67c52d1564df4a8936ccd202a3bd8, type: 3}
  - curve:
      serializedVersion: 2
      m_Curve:
      - time: 0
        value: 0
        inSlope: Infinity
        outSlope: Infinity
        tangentMode: 31
      - time: 10.516666
        value: 0
        inSlope: Infinity
        outSlope: Infinity
        tangentMode: 31
      - time: 11.933333
        value: 0
        inSlope: Infinity
        outSlope: Infinity
        tangentMode: 31
      - time: 11.95
        value: 0
        inSlope: Infinity
        outSlope: Infinity
        tangentMode: 31
      - time: 12.766666
        value: 1
        inSlope: Infinity
        outSlope: Infinity
        tangentMode: 31
      - time: 20.166666
        value: 1
        inSlope: Infinity
        outSlope: Infinity
        tangentMode: 31
      - time: 20.416666
        value: 0
        inSlope: Infinity
        outSlope: Infinity
        tangentMode: 31
      - time: 20.45
        value: 0
        inSlope: Infinity
        outSlope: Infinity
        tangentMode: 31
      - time: 20.466667
        value: 1
        inSlope: Infinity
        outSlope: Infinity
        tangentMode: 31
      - time: 20.5
        value: 0
        inSlope: Infinity
        outSlope: Infinity
        tangentMode: 31
      - time: 20.583334
        value: 0
        inSlope: Infinity
        outSlope: Infinity
        tangentMode: 31
      - time: 20.616667
        value: 0
        inSlope: Infinity
        outSlope: Infinity
        tangentMode: 31
      m_PreInfinity: 2
      m_PostInfinity: 2
      m_RotationOrder: 4
    attribute: m_IsActive
    path: PopoStudio/Image (3)
    classID: 1
    script: {fileID: 0}
  - curve:
      serializedVersion: 2
      m_Curve:
      - time: 0
        value: 0
        inSlope: Infinity
        outSlope: Infinity
        tangentMode: 31
      - time: 5.6833334
        value: 1
        inSlope: Infinity
        outSlope: Infinity
        tangentMode: 31
      - time: 10.4
        value: 0
        inSlope: Infinity
        outSlope: Infinity
        tangentMode: 31
      - time: 10.583333
        value: 0
        inSlope: Infinity
        outSlope: Infinity
        tangentMode: 31
      - time: 11.783334
        value: 0
        inSlope: Infinity
        outSlope: Infinity
        tangentMode: 31
      - time: 20.466667
        value: 1
        inSlope: Infinity
        outSlope: Infinity
        tangentMode: 31
      - time: 20.5
        value: 0
        inSlope: Infinity
        outSlope: Infinity
        tangentMode: 31
      - time: 20.583334
        value: 0
        inSlope: Infinity
        outSlope: Infinity
        tangentMode: 31
      - time: 20.616667
        value: 0
        inSlope: Infinity
        outSlope: Infinity
        tangentMode: 31
      m_PreInfinity: 2
      m_PostInfinity: 2
      m_RotationOrder: 4
    attribute: m_IsActive
    path: PopoStudio/Image (2)
    classID: 1
    script: {fileID: 0}
  - curve:
      serializedVersion: 2
      m_Curve:
      - time: 0
        value: 0
        inSlope: Infinity
        outSlope: Infinity
        tangentMode: 31
      - time: 17.95
        value: 0
        inSlope: Infinity
        outSlope: Infinity
        tangentMode: 31
      m_PreInfinity: 2
      m_PostInfinity: 2
      m_RotationOrder: 4
    attribute: m_IsActive
    path: UITutorial
    classID: 1
    script: {fileID: 0}
  - curve:
      serializedVersion: 2
      m_Curve:
      - time: 0
        value: 0
        inSlope: Infinity
        outSlope: Infinity
        tangentMode: 31
      - time: 17.95
        value: 0
        inSlope: Infinity
        outSlope: Infinity
        tangentMode: 31
      m_PreInfinity: 2
      m_PostInfinity: 2
      m_RotationOrder: 4
    attribute: m_IsActive
    path: HoldAndRotate
    classID: 1
    script: {fileID: 0}
  - curve:
      serializedVersion: 2
      m_Curve:
      - time: 0
        value: 1
        inSlope: -0.017898552
        outSlope: -0.017898552
        tangentMode: 10
      m_PreInfinity: 2
      m_PostInfinity: 2
      m_RotationOrder: 4
    attribute: m_Color.r
    path: UITutorial
    classID: 114
    script: {fileID: -765806418, guid: f5f67c52d1564df4a8936ccd202a3bd8, type: 3}
  - curve:
      serializedVersion: 2
      m_Curve:
      - time: 0
        value: 1
        inSlope: -0.017898552
        outSlope: -0.017898552
        tangentMode: 10
      m_PreInfinity: 2
      m_PostInfinity: 2
      m_RotationOrder: 4
    attribute: m_Color.g
    path: UITutorial
    classID: 114
    script: {fileID: -765806418, guid: f5f67c52d1564df4a8936ccd202a3bd8, type: 3}
  - curve:
      serializedVersion: 2
      m_Curve:
      - time: 0
        value: 1
        inSlope: -0.017898552
        outSlope: -0.017898552
        tangentMode: 10
      m_PreInfinity: 2
      m_PostInfinity: 2
      m_RotationOrder: 4
    attribute: m_Color.b
    path: UITutorial
    classID: 114
    script: {fileID: -765806418, guid: f5f67c52d1564df4a8936ccd202a3bd8, type: 3}
  - curve:
      serializedVersion: 2
      m_Curve:
      - time: 0
        value: 1
        inSlope: -0.033314824
        outSlope: -0.033314824
        tangentMode: 10
      m_PreInfinity: 2
      m_PostInfinity: 2
      m_RotationOrder: 4
    attribute: m_Color.a
    path: UITutorial
    classID: 114
    script: {fileID: -765806418, guid: f5f67c52d1564df4a8936ccd202a3bd8, type: 3}
  - curve:
      serializedVersion: 2
      m_Curve:
      - time: 0
        value: 1
        inSlope: Infinity
        outSlope: Infinity
        tangentMode: 31
      - time: 15.85
        value: 0
        inSlope: Infinity
        outSlope: Infinity
        tangentMode: 31
      - time: 19.8
        value: 0
        inSlope: Infinity
        outSlope: Infinity
        tangentMode: 31
      - time: 20.166666
        value: 0
        inSlope: Infinity
        outSlope: Infinity
        tangentMode: 31
      - time: 20.416666
        value: 0
        inSlope: Infinity
        outSlope: Infinity
        tangentMode: 31
      - time: 20.45
        value: 0
        inSlope: Infinity
        outSlope: Infinity
        tangentMode: 31
      - time: 23.35
        value: 0
        inSlope: Infinity
        outSlope: Infinity
        tangentMode: 31
      - time: 23.466667
        value: 0
        inSlope: Infinity
        outSlope: Infinity
        tangentMode: 31
      - time: 23.633333
        value: 0
        inSlope: Infinity
        outSlope: Infinity
        tangentMode: 31
      - time: 24.333334
        value: 0
        inSlope: Infinity
        outSlope: Infinity
        tangentMode: 31
      - time: 30.033333
        value: 1
        inSlope: Infinity
        outSlope: Infinity
        tangentMode: 31
      - time: 30.05
        value: 0
        inSlope: Infinity
        outSlope: Infinity
        tangentMode: 31
      - time: 30.083334
        value: 0
        inSlope: Infinity
        outSlope: Infinity
        tangentMode: 31
      m_PreInfinity: 2
      m_PostInfinity: 2
      m_RotationOrder: 4
    attribute: m_IsActive
    path: PopoStudio/Image
    classID: 1
    script: {fileID: 0}
  - curve:
      serializedVersion: 2
      m_Curve:
      - time: 0
        value: 1
        inSlope: Infinity
        outSlope: Infinity
        tangentMode: 31
      - time: 15.85
        value: 0
        inSlope: Infinity
        outSlope: Infinity
        tangentMode: 31
      - time: 19.8
        value: 0
        inSlope: Infinity
        outSlope: Infinity
        tangentMode: 31
      - time: 20.166666
        value: 0
        inSlope: Infinity
        outSlope: Infinity
        tangentMode: 31
      - time: 20.416666
        value: 0
        inSlope: Infinity
        outSlope: Infinity
        tangentMode: 31
      - time: 20.45
        value: 0
        inSlope: Infinity
        outSlope: Infinity
        tangentMode: 31
      - time: 23.35
        value: 0
        inSlope: Infinity
        outSlope: Infinity
        tangentMode: 31
      - time: 23.466667
        value: 0
        inSlope: Infinity
        outSlope: Infinity
        tangentMode: 31
      - time: 23.7
        value: 0
        inSlope: Infinity
        outSlope: Infinity
        tangentMode: 31
      - time: 30.083334
        value: 0
        inSlope: Infinity
        outSlope: Infinity
        tangentMode: 31
      m_PreInfinity: 2
      m_PostInfinity: 2
      m_RotationOrder: 4
    attribute: m_IsActive
    path: PopoStudio/Image (1)
    classID: 1
    script: {fileID: 0}
  - curve:
      serializedVersion: 2
      m_Curve:
      - time: 0
        value: 1
        inSlope: Infinity
        outSlope: Infinity
        tangentMode: 31
      - time: 30.083334
        value: 1
        inSlope: Infinity
        outSlope: Infinity
        tangentMode: 31
      m_PreInfinity: 2
      m_PostInfinity: 2
      m_RotationOrder: 4
    attribute: m_IsActive
    path: PopoStudio
    classID: 1
    script: {fileID: 0}
  - curve:
      serializedVersion: 2
      m_Curve:
      - time: 0
        value: 0
        inSlope: Infinity
        outSlope: Infinity
        tangentMode: 31
      m_PreInfinity: 2
      m_PostInfinity: 2
      m_RotationOrder: 4
    attribute: m_IsActive
    path: Taptomove2
    classID: 1
    script: {fileID: 0}
  m_PPtrCurves: []
  m_SampleRate: 60
  m_WrapMode: 0
  m_Bounds:
    m_Center: {x: 0, y: 0, z: 0}
    m_Extent: {x: 0, y: 0, z: 0}
  m_ClipBindingConstant:
    genericBindings:
    - path: 4105154292
      attribute: 304273561
      script: {fileID: -765806418, guid: f5f67c52d1564df4a8936ccd202a3bd8, type: 3}
      classID: 114
      customType: 0
      isPPtrCurve: 0
    - path: 1664574113
      attribute: 2526845255
      script: {fileID: -765806418, guid: f5f67c52d1564df4a8936ccd202a3bd8, type: 3}
      classID: 114
      customType: 0
      isPPtrCurve: 0
    - path: 1664574113
      attribute: 4215373228
      script: {fileID: -765806418, guid: f5f67c52d1564df4a8936ccd202a3bd8, type: 3}
      classID: 114
      customType: 0
      isPPtrCurve: 0
    - path: 1664574113
      attribute: 2334886179
      script: {fileID: -765806418, guid: f5f67c52d1564df4a8936ccd202a3bd8, type: 3}
      classID: 114
      customType: 0
      isPPtrCurve: 0
    - path: 3388934492
      attribute: 2526845255
      script: {fileID: -765806418, guid: f5f67c52d1564df4a8936ccd202a3bd8, type: 3}
      classID: 114
      customType: 0
      isPPtrCurve: 0
    - path: 3388934492
      attribute: 4215373228
      script: {fileID: -765806418, guid: f5f67c52d1564df4a8936ccd202a3bd8, type: 3}
      classID: 114
      customType: 0
      isPPtrCurve: 0
    - path: 3388934492
      attribute: 2334886179
      script: {fileID: -765806418, guid: f5f67c52d1564df4a8936ccd202a3bd8, type: 3}
      classID: 114
      customType: 0
      isPPtrCurve: 0
    - path: 3805436575
      attribute: 2526845255
      script: {fileID: -765806418, guid: f5f67c52d1564df4a8936ccd202a3bd8, type: 3}
      classID: 114
      customType: 0
      isPPtrCurve: 0
    - path: 3805436575
      attribute: 4215373228
      script: {fileID: -765806418, guid: f5f67c52d1564df4a8936ccd202a3bd8, type: 3}
      classID: 114
      customType: 0
      isPPtrCurve: 0
    - path: 3805436575
      attribute: 2334886179
      script: {fileID: -765806418, guid: f5f67c52d1564df4a8936ccd202a3bd8, type: 3}
      classID: 114
      customType: 0
      isPPtrCurve: 0
    - path: 4224281566
      attribute: 2526845255
      script: {fileID: -765806418, guid: f5f67c52d1564df4a8936ccd202a3bd8, type: 3}
      classID: 114
      customType: 0
      isPPtrCurve: 0
    - path: 4224281566
      attribute: 4215373228
      script: {fileID: -765806418, guid: f5f67c52d1564df4a8936ccd202a3bd8, type: 3}
      classID: 114
      customType: 0
      isPPtrCurve: 0
    - path: 4224281566
      attribute: 2334886179
      script: {fileID: -765806418, guid: f5f67c52d1564df4a8936ccd202a3bd8, type: 3}
      classID: 114
      customType: 0
      isPPtrCurve: 0
    - path: 4224281566
      attribute: 304273561
      script: {fileID: -765806418, guid: f5f67c52d1564df4a8936ccd202a3bd8, type: 3}
      classID: 114
      customType: 0
      isPPtrCurve: 0
    - path: 4224281566
      attribute: 2086281974
      script: {fileID: 0}
      classID: 1
      customType: 0
      isPPtrCurve: 0
    - path: 3805436575
      attribute: 2086281974
      script: {fileID: 0}
      classID: 1
      customType: 0
      isPPtrCurve: 0
    - path: 2495206128
      attribute: 2086281974
      script: {fileID: 0}
      classID: 1
      customType: 0
      isPPtrCurve: 0
    - path: 3261623402
      attribute: 2086281974
      script: {fileID: 0}
      classID: 1
      customType: 0
      isPPtrCurve: 0
    - path: 2495206128
      attribute: 2526845255
      script: {fileID: -765806418, guid: f5f67c52d1564df4a8936ccd202a3bd8, type: 3}
      classID: 114
      customType: 0
      isPPtrCurve: 0
    - path: 2495206128
      attribute: 4215373228
      script: {fileID: -765806418, guid: f5f67c52d1564df4a8936ccd202a3bd8, type: 3}
      classID: 114
      customType: 0
      isPPtrCurve: 0
    - path: 2495206128
      attribute: 2334886179
      script: {fileID: -765806418, guid: f5f67c52d1564df4a8936ccd202a3bd8, type: 3}
      classID: 114
      customType: 0
      isPPtrCurve: 0
    - path: 2495206128
      attribute: 304273561
      script: {fileID: -765806418, guid: f5f67c52d1564df4a8936ccd202a3bd8, type: 3}
      classID: 114
      customType: 0
      isPPtrCurve: 0
    - path: 1664574113
      attribute: 2086281974
      script: {fileID: 0}
      classID: 1
      customType: 0
      isPPtrCurve: 0
    - path: 3388934492
      attribute: 2086281974
      script: {fileID: 0}
      classID: 1
      customType: 0
      isPPtrCurve: 0
    - path: 4105154292
      attribute: 2086281974
      script: {fileID: 0}
      classID: 1
      customType: 0
      isPPtrCurve: 0
    - path: 3615395245
      attribute: 2086281974
      script: {fileID: 0}
      classID: 1
      customType: 0
      isPPtrCurve: 0
    - path: 4105154292
      attribute: 2526845255
      script: {fileID: -765806418, guid: f5f67c52d1564df4a8936ccd202a3bd8, type: 3}
      classID: 114
      customType: 0
      isPPtrCurve: 0
    - path: 4105154292
      attribute: 4215373228
      script: {fileID: -765806418, guid: f5f67c52d1564df4a8936ccd202a3bd8, type: 3}
      classID: 114
      customType: 0
      isPPtrCurve: 0
    - path: 4105154292
      attribute: 2334886179
      script: {fileID: -765806418, guid: f5f67c52d1564df4a8936ccd202a3bd8, type: 3}
      classID: 114
      customType: 0
      isPPtrCurve: 0
    - path: 1664574113
      attribute: 304273561
      script: {fileID: -765806418, guid: f5f67c52d1564df4a8936ccd202a3bd8, type: 3}
      classID: 114
      customType: 0
      isPPtrCurve: 0
    - path: 3388934492
      attribute: 304273561
      script: {fileID: -765806418, guid: f5f67c52d1564df4a8936ccd202a3bd8, type: 3}
      classID: 114
      customType: 0
      isPPtrCurve: 0
    - path: 3388934492
      attribute: 538195251
      script: {fileID: 0}
      classID: 224
      customType: 0
      isPPtrCurve: 0
    - path: 3805436575
      attribute: 304273561
      script: {fileID: -765806418, guid: f5f67c52d1564df4a8936ccd202a3bd8, type: 3}
      classID: 114
      customType: 0
      isPPtrCurve: 0
    pptrCurveMapping: []
  m_AnimationClipSettings:
    serializedVersion: 2
    m_AdditiveReferencePoseClip: {fileID: 0}
    m_AdditiveReferencePoseTime: 0
    m_StartTime: 0
    m_StopTime: 30.083334
    m_OrientationOffsetY: 0
    m_Level: 0
    m_CycleOffset: 0
    m_HasAdditiveReferencePose: 0
    m_LoopTime: 0
    m_LoopBlend: 0
    m_LoopBlendOrientation: 0
    m_LoopBlendPositionY: 0
    m_LoopBlendPositionXZ: 0
    m_KeepOriginalOrientation: 0
    m_KeepOriginalPositionY: 1
    m_KeepOriginalPositionXZ: 0
    m_HeightFromFeet: 0
    m_Mirror: 0
  m_EditorCurves:
  - curve:
      serializedVersion: 2
      m_Curve:
      - time: 0
        value: 1
        inSlope: 0
        outSlope: 0
        tangentMode: 10
      - time: 1
        value: 1
        inSlope: 0
        outSlope: 0
        tangentMode: 10
      m_PreInfinity: 2
      m_PostInfinity: 2
      m_RotationOrder: 4
    attribute: m_Color.r
    path: PopoStudio
    classID: 114
    script: {fileID: -765806418, guid: f5f67c52d1564df4a8936ccd202a3bd8, type: 3}
  - curve:
      serializedVersion: 2
      m_Curve:
      - time: 0
        value: 1
        inSlope: 0
        outSlope: 0
        tangentMode: 10
      - time: 1
        value: 1
        inSlope: 0
        outSlope: 0
        tangentMode: 10
      m_PreInfinity: 2
      m_PostInfinity: 2
      m_RotationOrder: 4
    attribute: m_Color.g
    path: PopoStudio
    classID: 114
    script: {fileID: -765806418, guid: f5f67c52d1564df4a8936ccd202a3bd8, type: 3}
  - curve:
      serializedVersion: 2
      m_Curve:
      - time: 0
        value: 1
        inSlope: 0
        outSlope: 0
        tangentMode: 10
      - time: 1
        value: 1
        inSlope: 0
        outSlope: 0
        tangentMode: 10
      m_PreInfinity: 2
      m_PostInfinity: 2
      m_RotationOrder: 4
    attribute: m_Color.b
    path: PopoStudio
    classID: 114
    script: {fileID: -765806418, guid: f5f67c52d1564df4a8936ccd202a3bd8, type: 3}
  - curve:
      serializedVersion: 2
      m_Curve:
      - time: 0
        value: 1
        inSlope: 0
        outSlope: 0
        tangentMode: 10
      - time: 1
        value: 1
        inSlope: 0
        outSlope: 0
        tangentMode: 10
      - time: 25.083334
        value: 1
        inSlope: -0.10101012
        outSlope: -0.10101012
        tangentMode: 10
      - time: 30.033333
        value: 0
        inSlope: -0.20202024
        outSlope: -0.20202024
        tangentMode: 10
      m_PreInfinity: 2
      m_PostInfinity: 2
      m_RotationOrder: 4
    attribute: m_Color.a
    path: PopoStudio
    classID: 114
    script: {fileID: -765806418, guid: f5f67c52d1564df4a8936ccd202a3bd8, type: 3}
  - curve:
      serializedVersion: 2
      m_Curve:
      - time: 0
        value: 0.09019608
        inSlope: 0.9098039
        outSlope: 0.9098039
        tangentMode: 10
      - time: 1
        value: 1
        inSlope: 0.45490196
        outSlope: 0.45490196
        tangentMode: 10
      - time: 2
        value: 1
        inSlope: -0.45490196
        outSlope: -0.45490196
        tangentMode: 10
      - time: 3
        value: 0.09019608
        inSlope: -0.9098039
        outSlope: -0.9098039
        tangentMode: 10
      m_PreInfinity: 2
      m_PostInfinity: 2
      m_RotationOrder: 4
    attribute: m_Color.r
    path: PopoStudio/Image
    classID: 114
    script: {fileID: -765806418, guid: f5f67c52d1564df4a8936ccd202a3bd8, type: 3}
  - curve:
      serializedVersion: 2
      m_Curve:
      - time: 0
        value: 0.09019608
        inSlope: 0.9098039
        outSlope: 0.9098039
        tangentMode: 10
      - time: 1
        value: 1
        inSlope: 0.45490196
        outSlope: 0.45490196
        tangentMode: 10
      - time: 2
        value: 1
        inSlope: -0.45490196
        outSlope: -0.45490196
        tangentMode: 10
      - time: 3
        value: 0.09019608
        inSlope: -0.9098039
        outSlope: -0.9098039
        tangentMode: 10
      m_PreInfinity: 2
      m_PostInfinity: 2
      m_RotationOrder: 4
    attribute: m_Color.g
    path: PopoStudio/Image
    classID: 114
    script: {fileID: -765806418, guid: f5f67c52d1564df4a8936ccd202a3bd8, type: 3}
  - curve:
      serializedVersion: 2
      m_Curve:
      - time: 0
        value: 0.09411766
        inSlope: 0.90588236
        outSlope: 0.90588236
        tangentMode: 10
      - time: 1
        value: 1
        inSlope: 0.45294118
        outSlope: 0.45294118
        tangentMode: 10
      - time: 2
        value: 1
        inSlope: -0.45294118
        outSlope: -0.45294118
        tangentMode: 10
      - time: 3
        value: 0.09411766
        inSlope: -0.90588236
        outSlope: -0.90588236
        tangentMode: 10
      m_PreInfinity: 2
      m_PostInfinity: 2
      m_RotationOrder: 4
    attribute: m_Color.b
    path: PopoStudio/Image
    classID: 114
    script: {fileID: -765806418, guid: f5f67c52d1564df4a8936ccd202a3bd8, type: 3}
  - curve:
      serializedVersion: 2
      m_Curve:
      - time: 0
        value: 1
        inSlope: 0
        outSlope: 0
        tangentMode: 10
      - time: 1
        value: 1
        inSlope: 0
        outSlope: 0
        tangentMode: 10
      m_PreInfinity: 2
      m_PostInfinity: 2
      m_RotationOrder: 4
    attribute: m_Color.a
    path: PopoStudio/Image
    classID: 114
    script: {fileID: -765806418, guid: f5f67c52d1564df4a8936ccd202a3bd8, type: 3}
  - curve:
      serializedVersion: 2
      m_Curve:
      - time: 0
        value: 0.09019608
        inSlope: 0
        outSlope: 0
        tangentMode: 10
      - time: 1
        value: 0.09019608
        inSlope: 0
        outSlope: 0
        tangentMode: 10
      - time: 2
        value: 0.09019608
        inSlope: 0
        outSlope: 0
        tangentMode: 10
      - time: 2.5
        value: 0.09019608
        inSlope: 0
        outSlope: 0
        tangentMode: 10
      - time: 2.9333334
        value: 0.09019608
        inSlope: 0
        outSlope: 0
        tangentMode: 10
      - time: 3
        value: 0.09019608
        inSlope: 0.9098039
        outSlope: 0.9098039
        tangentMode: 10
      - time: 3.5
        value: 1
        inSlope: 0.9098039
        outSlope: 0.9098039
        tangentMode: 10
      - time: 4.4166665
        value: 1
        inSlope: -0.41990945
        outSlope: -0.41990945
        tangentMode: 10
      - time: 5.5
        value: 0.09019608
        inSlope: -0.41990945
        outSlope: -0.41990945
        tangentMode: 10
      - time: 5.866667
        value: 0.09019608
        inSlope: 0
        outSlope: 0
        tangentMode: 10
      m_PreInfinity: 2
      m_PostInfinity: 2
      m_RotationOrder: 4
    attribute: m_Color.r
    path: PopoStudio/Image (1)
    classID: 114
    script: {fileID: -765806418, guid: f5f67c52d1564df4a8936ccd202a3bd8, type: 3}
  - curve:
      serializedVersion: 2
      m_Curve:
      - time: 0
        value: 0.09019608
        inSlope: 0
        outSlope: 0
        tangentMode: 10
      - time: 1
        value: 0.09019608
        inSlope: 0
        outSlope: 0
        tangentMode: 10
      - time: 2
        value: 0.09019608
        inSlope: 0
        outSlope: 0
        tangentMode: 10
      - time: 2.5
        value: 0.09019608
        inSlope: 0
        outSlope: 0
        tangentMode: 10
      - time: 2.9333334
        value: 0.09019608
        inSlope: 0
        outSlope: 0
        tangentMode: 10
      - time: 3
        value: 0.09019608
        inSlope: 0.9098039
        outSlope: 0.9098039
        tangentMode: 10
      - time: 3.5
        value: 1
        inSlope: 0.9098039
        outSlope: 0.9098039
        tangentMode: 10
      - time: 4.4166665
        value: 1
        inSlope: -0.41990945
        outSlope: -0.41990945
        tangentMode: 10
      - time: 5.5
        value: 0.09019608
        inSlope: -0.41990945
        outSlope: -0.41990945
        tangentMode: 10
      - time: 5.866667
        value: 0.09019608
        inSlope: 0
        outSlope: 0
        tangentMode: 10
      m_PreInfinity: 2
      m_PostInfinity: 2
      m_RotationOrder: 4
    attribute: m_Color.g
    path: PopoStudio/Image (1)
    classID: 114
    script: {fileID: -765806418, guid: f5f67c52d1564df4a8936ccd202a3bd8, type: 3}
  - curve:
      serializedVersion: 2
      m_Curve:
      - time: 0
        value: 0.09411766
        inSlope: 0
        outSlope: 0
        tangentMode: 10
      - time: 1
        value: 0.09411766
        inSlope: 0
        outSlope: 0
        tangentMode: 10
      - time: 2
        value: 0.09411766
        inSlope: 0
        outSlope: 0
        tangentMode: 10
      - time: 2.5
        value: 0.09411766
        inSlope: 0
        outSlope: 0
        tangentMode: 10
      - time: 2.9333334
        value: 0.09411766
        inSlope: 0
        outSlope: 0
        tangentMode: 10
      - time: 3
        value: 0.09411766
        inSlope: 0.90588236
        outSlope: 0.90588236
        tangentMode: 10
      - time: 3.5
        value: 1
        inSlope: 0.90588236
        outSlope: 0.90588236
        tangentMode: 10
      - time: 4.4166665
        value: 1
        inSlope: -0.4180995
        outSlope: -0.4180995
        tangentMode: 10
      - time: 5.5
        value: 0.09411766
        inSlope: -0.4180995
        outSlope: -0.4180995
        tangentMode: 10
      - time: 5.866667
        value: 0.09411766
        inSlope: 0
        outSlope: 0
        tangentMode: 10
      m_PreInfinity: 2
      m_PostInfinity: 2
      m_RotationOrder: 4
    attribute: m_Color.b
    path: PopoStudio/Image (1)
    classID: 114
    script: {fileID: -765806418, guid: f5f67c52d1564df4a8936ccd202a3bd8, type: 3}
  - curve:
      serializedVersion: 2
      m_Curve:
      - time: 0
        value: 1
        inSlope: 0
        outSlope: 0
        tangentMode: 10
      - time: 3
        value: 1
        inSlope: 0
        outSlope: 0
        tangentMode: 10
      m_PreInfinity: 2
      m_PostInfinity: 2
      m_RotationOrder: 4
    attribute: m_Color.a
    path: PopoStudio/Image (1)
    classID: 114
    script: {fileID: -765806418, guid: f5f67c52d1564df4a8936ccd202a3bd8, type: 3}
  - curve:
      serializedVersion: 2
      m_Curve:
      - time: 0
        value: 300
        inSlope: 0
        outSlope: 0
        tangentMode: 10
      m_PreInfinity: 2
      m_PostInfinity: 2
      m_RotationOrder: 4
    attribute: m_AnchoredPosition.y
    path: PopoStudio/Image (1)
    classID: 224
    script: {fileID: 0}
  - curve:
      serializedVersion: 2
      m_Curve:
      - time: 0
        value: 0.09019608
        inSlope: 0
        outSlope: 0
        tangentMode: 10
      - time: 1
        value: 0.09019608
        inSlope: 0
        outSlope: 0
        tangentMode: 10
      - time: 2
        value: 0.09019608
        inSlope: 0
        outSlope: 0
        tangentMode: 10
      - time: 2.5
        value: 0.09019608
        inSlope: 0
        outSlope: 0
        tangentMode: 10
      - time: 4.4166665
        value: 0.09019608
        inSlope: 0
        outSlope: 0
        tangentMode: 10
      - time: 5.5
        value: 0.09019608
        inSlope: 1.2406412
        outSlope: 1.2406412
        tangentMode: 10
      - time: 5.866667
        value: 1
        inSlope: 1.1428128
        outSlope: 1.1428128
        tangentMode: 10
      - time: 10.516666
        value: 0.09019608
        inSlope: -0.09782839
        outSlope: -0.09782839
        tangentMode: 10
      - time: 10.533334
        value: 0.09019608
        inSlope: 0
        outSlope: 0
        tangentMode: 10
      - time: 10.55
        value: 0.09019608
        inSlope: 0
        outSlope: 0
        tangentMode: 10
      - time: 10.65
        value: 0.09019608
        inSlope: 0
        outSlope: 0
        tangentMode: 10
      - time: 11.766666
        value: 0.09019608
        inSlope: 27.292973
        outSlope: 27.292973
        tangentMode: 10
      - time: 11.783334
        value: 1
        inSlope: 26.83036
        outSlope: 26.83036
        tangentMode: 10
      - time: 12.766666
        value: 0.09019608
        inSlope: -0.925225
        outSlope: -0.925225
        tangentMode: 10
      m_PreInfinity: 2
      m_PostInfinity: 2
      m_RotationOrder: 4
    attribute: m_Color.r
    path: PopoStudio/Image (2)
    classID: 114
    script: {fileID: -765806418, guid: f5f67c52d1564df4a8936ccd202a3bd8, type: 3}
  - curve:
      serializedVersion: 2
      m_Curve:
      - time: 0
        value: 0.09019608
        inSlope: 0
        outSlope: 0
        tangentMode: 10
      - time: 1
        value: 0.09019608
        inSlope: 0
        outSlope: 0
        tangentMode: 10
      - time: 2
        value: 0.09019608
        inSlope: 0
        outSlope: 0
        tangentMode: 10
      - time: 2.5
        value: 0.09019608
        inSlope: 0
        outSlope: 0
        tangentMode: 10
      - time: 4.4166665
        value: 0.09019608
        inSlope: 0
        outSlope: 0
        tangentMode: 10
      - time: 5.5
        value: 0.09019608
        inSlope: 1.2406412
        outSlope: 1.2406412
        tangentMode: 10
      - time: 5.866667
        value: 1
        inSlope: 1.1428128
        outSlope: 1.1428128
        tangentMode: 10
      - time: 10.516666
        value: 0.09019608
        inSlope: -0.09782839
        outSlope: -0.09782839
        tangentMode: 10
      - time: 10.533334
        value: 0.09019608
        inSlope: 0
        outSlope: 0
        tangentMode: 10
      - time: 10.55
        value: 0.09019608
        inSlope: 0
        outSlope: 0
        tangentMode: 10
      - time: 10.65
        value: 0.09019608
        inSlope: 0
        outSlope: 0
        tangentMode: 10
      - time: 11.766666
        value: 0.09019608
        inSlope: 27.292973
        outSlope: 27.292973
        tangentMode: 10
      - time: 11.783334
        value: 1
        inSlope: 26.83036
        outSlope: 26.83036
        tangentMode: 10
      - time: 12.766666
        value: 0.09019608
        inSlope: -0.925225
        outSlope: -0.925225
        tangentMode: 10
      m_PreInfinity: 2
      m_PostInfinity: 2
      m_RotationOrder: 4
    attribute: m_Color.g
    path: PopoStudio/Image (2)
    classID: 114
    script: {fileID: -765806418, guid: f5f67c52d1564df4a8936ccd202a3bd8, type: 3}
  - curve:
      serializedVersion: 2
      m_Curve:
      - time: 0
        value: 0.09411766
        inSlope: 0
        outSlope: 0
        tangentMode: 10
      - time: 1
        value: 0.09411766
        inSlope: 0
        outSlope: 0
        tangentMode: 10
      - time: 2
        value: 0.09411766
        inSlope: 0
        outSlope: 0
        tangentMode: 10
      - time: 2.5
        value: 0.09411766
        inSlope: 0
        outSlope: 0
        tangentMode: 10
      - time: 4.4166665
        value: 0.09411766
        inSlope: 0
        outSlope: 0
        tangentMode: 10
      - time: 5.5
        value: 0.09411766
        inSlope: 1.2352937
        outSlope: 1.2352937
        tangentMode: 10
      - time: 5.866667
        value: 1
        inSlope: 1.137887
        outSlope: 1.137887
        tangentMode: 10
      - time: 10.516666
        value: 0.09411766
        inSlope: -0.097406715
        outSlope: -0.097406715
        tangentMode: 10
      - time: 10.533334
        value: 0.09411766
        inSlope: 0
        outSlope: 0
        tangentMode: 10
      - time: 10.55
        value: 0.09411766
        inSlope: 0
        outSlope: 0
        tangentMode: 10
      - time: 10.65
        value: 0.09411766
        inSlope: 0
        outSlope: 0
        tangentMode: 10
      - time: 11.766666
        value: 0.09411766
        inSlope: 27.175331
        outSlope: 27.175331
        tangentMode: 10
      - time: 11.783334
        value: 1
        inSlope: 26.714712
        outSlope: 26.714712
        tangentMode: 10
      - time: 12.766666
        value: 0.09411766
        inSlope: -0.92123693
        outSlope: -0.92123693
        tangentMode: 10
      m_PreInfinity: 2
      m_PostInfinity: 2
      m_RotationOrder: 4
    attribute: m_Color.b
    path: PopoStudio/Image (2)
    classID: 114
    script: {fileID: -765806418, guid: f5f67c52d1564df4a8936ccd202a3bd8, type: 3}
  - curve:
      serializedVersion: 2
      m_Curve:
      - time: 0
        value: 1
        inSlope: 0
        outSlope: 0
        tangentMode: 10
      - time: 5.5
        value: 1
        inSlope: 0
        outSlope: 0
        tangentMode: 10
      - time: 5.866667
        value: 1
        inSlope: 0
        outSlope: 0
        tangentMode: 10
      m_PreInfinity: 2
      m_PostInfinity: 2
      m_RotationOrder: 4
    attribute: m_Color.a
    path: PopoStudio/Image (2)
    classID: 114
    script: {fileID: -765806418, guid: f5f67c52d1564df4a8936ccd202a3bd8, type: 3}
  - curve:
      serializedVersion: 2
      m_Curve:
      - time: 0
        value: 0
        inSlope: 0.09019608
        outSlope: 0.09019608
        tangentMode: 10
      - time: 1
        value: 0.09019608
        inSlope: 0.04509804
        outSlope: 0.04509804
        tangentMode: 10
      - time: 1.9833333
        value: 0.09019608
        inSlope: 0
        outSlope: 0
        tangentMode: 10
      - time: 3
        value: 0.09019608
        inSlope: 0
        outSlope: 0
        tangentMode: 10
      - time: 10.533334
        value: 0.09019608
        inSlope: 0
        outSlope: 0
        tangentMode: 10
      - time: 11.783334
        value: 0.09019608
        inSlope: 0
        outSlope: 0
        tangentMode: 10
      - time: 12.75
        value: 0.09019608
        inSlope: 27.294535
        outSlope: 27.294535
        tangentMode: 10
      - time: 12.766666
        value: 1
        inSlope: 27.235456
        outSlope: 27.235456
        tangentMode: 10
      - time: 20.466667
        value: 0.09019608
        inSlope: -0.11815634
        outSlope: -0.11815634
        tangentMode: 10
      m_PreInfinity: 2
      m_PostInfinity: 2
      m_RotationOrder: 4
    attribute: m_Color.r
    path: PopoStudio/Image (3)
    classID: 114
    script: {fileID: -765806418, guid: f5f67c52d1564df4a8936ccd202a3bd8, type: 3}
  - curve:
      serializedVersion: 2
      m_Curve:
      - time: 0
        value: 0
        inSlope: 0.09019608
        outSlope: 0.09019608
        tangentMode: 10
      - time: 1
        value: 0.09019608
        inSlope: 0.04509804
        outSlope: 0.04509804
        tangentMode: 10
      - time: 1.9833333
        value: 0.09019608
        inSlope: 0
        outSlope: 0
        tangentMode: 10
      - time: 3
        value: 0.09019608
        inSlope: 0
        outSlope: 0
        tangentMode: 10
      - time: 10.533334
        value: 0.09019608
        inSlope: 0
        outSlope: 0
        tangentMode: 10
      - time: 11.783334
        value: 0.09019608
        inSlope: 0
        outSlope: 0
        tangentMode: 10
      - time: 12.75
        value: 0.09019608
        inSlope: 27.294535
        outSlope: 27.294535
        tangentMode: 10
      - time: 12.766666
        value: 1
        inSlope: 27.235456
        outSlope: 27.235456
        tangentMode: 10
      - time: 20.466667
        value: 0.09019608
        inSlope: -0.11815634
        outSlope: -0.11815634
        tangentMode: 10
      m_PreInfinity: 2
      m_PostInfinity: 2
      m_RotationOrder: 4
    attribute: m_Color.g
    path: PopoStudio/Image (3)
    classID: 114
    script: {fileID: -765806418, guid: f5f67c52d1564df4a8936ccd202a3bd8, type: 3}
  - curve:
      serializedVersion: 2
      m_Curve:
      - time: 0
        value: 0
        inSlope: 0.09411766
        outSlope: 0.09411766
        tangentMode: 10
      - time: 1
        value: 0.09411766
        inSlope: 0.04705883
        outSlope: 0.04705883
        tangentMode: 10
      - time: 1.9833333
        value: 0.09411766
        inSlope: 0
        outSlope: 0
        tangentMode: 10
      - time: 3
        value: 0.09411766
        inSlope: 0
        outSlope: 0
        tangentMode: 10
      - time: 10.533334
        value: 0.09411766
        inSlope: 0
        outSlope: 0
        tangentMode: 10
      - time: 11.783334
        value: 0.09411766
        inSlope: 0
        outSlope: 0
        tangentMode: 10
      - time: 12.75
        value: 0.09411766
        inSlope: 27.176886
        outSlope: 27.176886
        tangentMode: 10
      - time: 12.766666
        value: 1
        inSlope: 27.118063
        outSlope: 27.118063
        tangentMode: 10
      - time: 20.466667
        value: 0.09411766
        inSlope: -0.117647044
        outSlope: -0.117647044
        tangentMode: 10
      m_PreInfinity: 2
      m_PostInfinity: 2
      m_RotationOrder: 4
    attribute: m_Color.b
    path: PopoStudio/Image (3)
    classID: 114
    script: {fileID: -765806418, guid: f5f67c52d1564df4a8936ccd202a3bd8, type: 3}
  - curve:
      serializedVersion: 2
      m_Curve:
      - time: 0
        value: 0
        inSlope: 0.07832898
        outSlope: 0.07832898
        tangentMode: 10
      - time: 12.766666
        value: 1
        inSlope: 0.07832898
        outSlope: 0.07832898
        tangentMode: 10
      m_PreInfinity: 2
      m_PostInfinity: 2
      m_RotationOrder: 4
    attribute: m_Color.a
    path: PopoStudio/Image (3)
    classID: 114
    script: {fileID: -765806418, guid: f5f67c52d1564df4a8936ccd202a3bd8, type: 3}
  - curve:
      serializedVersion: 2
      m_Curve:
      - time: 0
        value: 0
        inSlope: Infinity
        outSlope: Infinity
        tangentMode: 31
      - time: 10.516666
        value: 0
        inSlope: Infinity
        outSlope: Infinity
        tangentMode: 31
      - time: 11.933333
        value: 0
        inSlope: Infinity
        outSlope: Infinity
        tangentMode: 31
      - time: 11.95
        value: 0
        inSlope: Infinity
        outSlope: Infinity
        tangentMode: 31
      - time: 12.766666
        value: 1
        inSlope: Infinity
        outSlope: Infinity
        tangentMode: 31
      - time: 20.166666
        value: 1
        inSlope: Infinity
        outSlope: Infinity
        tangentMode: 31
      - time: 20.416666
        value: 0
        inSlope: Infinity
        outSlope: Infinity
        tangentMode: 31
      - time: 20.45
        value: 0
        inSlope: Infinity
        outSlope: Infinity
        tangentMode: 31
      - time: 20.466667
        value: 1
        inSlope: Infinity
        outSlope: Infinity
        tangentMode: 31
      - time: 20.5
        value: 0
        inSlope: Infinity
        outSlope: Infinity
        tangentMode: 31
      - time: 20.583334
        value: 0
        inSlope: Infinity
        outSlope: Infinity
        tangentMode: 31
      - time: 20.616667
        value: 0
        inSlope: Infinity
        outSlope: Infinity
        tangentMode: 31
      m_PreInfinity: 2
      m_PostInfinity: 2
      m_RotationOrder: 4
    attribute: m_IsActive
    path: PopoStudio/Image (3)
    classID: 1
    script: {fileID: 0}
  - curve:
      serializedVersion: 2
      m_Curve:
      - time: 0
        value: 0
        inSlope: Infinity
        outSlope: Infinity
        tangentMode: 31
      - time: 5.6833334
        value: 1
        inSlope: Infinity
        outSlope: Infinity
        tangentMode: 31
      - time: 10.4
        value: 0
        inSlope: Infinity
        outSlope: Infinity
        tangentMode: 31
      - time: 10.583333
        value: 0
        inSlope: Infinity
        outSlope: Infinity
        tangentMode: 31
      - time: 11.783334
        value: 0
        inSlope: Infinity
        outSlope: Infinity
        tangentMode: 31
      - time: 20.466667
        value: 1
        inSlope: Infinity
        outSlope: Infinity
        tangentMode: 31
      - time: 20.5
        value: 0
        inSlope: Infinity
        outSlope: Infinity
        tangentMode: 31
      - time: 20.583334
        value: 0
        inSlope: Infinity
        outSlope: Infinity
        tangentMode: 31
      - time: 20.616667
        value: 0
        inSlope: Infinity
        outSlope: Infinity
        tangentMode: 31
      m_PreInfinity: 2
      m_PostInfinity: 2
      m_RotationOrder: 4
    attribute: m_IsActive
    path: PopoStudio/Image (2)
    classID: 1
    script: {fileID: 0}
  - curve:
      serializedVersion: 2
      m_Curve:
      - time: 0
        value: 0
        inSlope: Infinity
        outSlope: Infinity
        tangentMode: 31
      - time: 17.95
        value: 0
        inSlope: Infinity
        outSlope: Infinity
        tangentMode: 31
      m_PreInfinity: 2
      m_PostInfinity: 2
      m_RotationOrder: 4
    attribute: m_IsActive
    path: UITutorial
    classID: 1
    script: {fileID: 0}
  - curve:
      serializedVersion: 2
      m_Curve:
      - time: 0
        value: 0
        inSlope: Infinity
        outSlope: Infinity
        tangentMode: 31
      - time: 17.95
        value: 0
        inSlope: Infinity
        outSlope: Infinity
        tangentMode: 31
      m_PreInfinity: 2
      m_PostInfinity: 2
      m_RotationOrder: 4
    attribute: m_IsActive
    path: HoldAndRotate
    classID: 1
    script: {fileID: 0}
  - curve:
      serializedVersion: 2
      m_Curve:
      - time: 0
        value: 1
        inSlope: -0.017898552
        outSlope: -0.017898552
        tangentMode: 10
      m_PreInfinity: 2
      m_PostInfinity: 2
      m_RotationOrder: 4
    attribute: m_Color.r
    path: UITutorial
    classID: 114
    script: {fileID: -765806418, guid: f5f67c52d1564df4a8936ccd202a3bd8, type: 3}
  - curve:
      serializedVersion: 2
      m_Curve:
      - time: 0
        value: 1
        inSlope: -0.017898552
        outSlope: -0.017898552
        tangentMode: 10
      m_PreInfinity: 2
      m_PostInfinity: 2
      m_RotationOrder: 4
    attribute: m_Color.g
    path: UITutorial
    classID: 114
    script: {fileID: -765806418, guid: f5f67c52d1564df4a8936ccd202a3bd8, type: 3}
  - curve:
      serializedVersion: 2
      m_Curve:
      - time: 0
        value: 1
        inSlope: -0.017898552
        outSlope: -0.017898552
        tangentMode: 10
      m_PreInfinity: 2
      m_PostInfinity: 2
      m_RotationOrder: 4
    attribute: m_Color.b
    path: UITutorial
    classID: 114
    script: {fileID: -765806418, guid: f5f67c52d1564df4a8936ccd202a3bd8, type: 3}
  - curve:
      serializedVersion: 2
      m_Curve:
      - time: 0
        value: 1
        inSlope: -0.033314824
        outSlope: -0.033314824
        tangentMode: 10
      m_PreInfinity: 2
      m_PostInfinity: 2
      m_RotationOrder: 4
    attribute: m_Color.a
    path: UITutorial
    classID: 114
    script: {fileID: -765806418, guid: f5f67c52d1564df4a8936ccd202a3bd8, type: 3}
  - curve:
      serializedVersion: 2
      m_Curve:
      - time: 0
        value: 1
        inSlope: Infinity
        outSlope: Infinity
        tangentMode: 31
      - time: 15.85
        value: 0
        inSlope: Infinity
        outSlope: Infinity
        tangentMode: 31
      - time: 19.8
        value: 0
        inSlope: Infinity
        outSlope: Infinity
        tangentMode: 31
      - time: 20.166666
        value: 0
        inSlope: Infinity
        outSlope: Infinity
        tangentMode: 31
      - time: 20.416666
        value: 0
        inSlope: Infinity
        outSlope: Infinity
        tangentMode: 31
      - time: 20.45
        value: 0
        inSlope: Infinity
        outSlope: Infinity
        tangentMode: 31
      - time: 23.35
        value: 0
        inSlope: Infinity
        outSlope: Infinity
        tangentMode: 31
      - time: 23.466667
        value: 0
        inSlope: Infinity
        outSlope: Infinity
        tangentMode: 31
      - time: 23.633333
        value: 0
        inSlope: Infinity
        outSlope: Infinity
        tangentMode: 31
      - time: 24.333334
        value: 0
        inSlope: Infinity
        outSlope: Infinity
        tangentMode: 31
      - time: 30.033333
        value: 1
        inSlope: Infinity
        outSlope: Infinity
        tangentMode: 31
      - time: 30.05
        value: 0
        inSlope: Infinity
        outSlope: Infinity
        tangentMode: 31
      - time: 30.083334
        value: 0
        inSlope: Infinity
        outSlope: Infinity
        tangentMode: 31
      m_PreInfinity: 2
      m_PostInfinity: 2
      m_RotationOrder: 4
    attribute: m_IsActive
    path: PopoStudio/Image
    classID: 1
    script: {fileID: 0}
  - curve:
      serializedVersion: 2
      m_Curve:
      - time: 0
        value: 1
        inSlope: Infinity
        outSlope: Infinity
        tangentMode: 31
      - time: 15.85
        value: 0
        inSlope: Infinity
        outSlope: Infinity
        tangentMode: 31
      - time: 19.8
        value: 0
        inSlope: Infinity
        outSlope: Infinity
        tangentMode: 31
      - time: 20.166666
        value: 0
        inSlope: Infinity
        outSlope: Infinity
        tangentMode: 31
      - time: 20.416666
        value: 0
        inSlope: Infinity
        outSlope: Infinity
        tangentMode: 31
      - time: 20.45
        value: 0
        inSlope: Infinity
        outSlope: Infinity
        tangentMode: 31
      - time: 23.35
        value: 0
        inSlope: Infinity
        outSlope: Infinity
        tangentMode: 31
      - time: 23.466667
        value: 0
        inSlope: Infinity
        outSlope: Infinity
        tangentMode: 31
      - time: 23.7
        value: 0
        inSlope: Infinity
        outSlope: Infinity
        tangentMode: 31
      - time: 30.083334
        value: 0
        inSlope: Infinity
        outSlope: Infinity
        tangentMode: 31
      m_PreInfinity: 2
      m_PostInfinity: 2
      m_RotationOrder: 4
    attribute: m_IsActive
    path: PopoStudio/Image (1)
    classID: 1
    script: {fileID: 0}
  - curve:
      serializedVersion: 2
      m_Curve:
      - time: 0
        value: 1
        inSlope: Infinity
        outSlope: Infinity
        tangentMode: 31
      - time: 30.083334
        value: 1
        inSlope: Infinity
        outSlope: Infinity
        tangentMode: 31
      m_PreInfinity: 2
      m_PostInfinity: 2
      m_RotationOrder: 4
    attribute: m_IsActive
    path: PopoStudio
    classID: 1
    script: {fileID: 0}
  - curve:
      serializedVersion: 2
      m_Curve:
      - time: 0
        value: 0
        inSlope: Infinity
        outSlope: Infinity
        tangentMode: 31
      m_PreInfinity: 2
      m_PostInfinity: 2
      m_RotationOrder: 4
    attribute: m_IsActive
    path: Taptomove2
    classID: 1
    script: {fileID: 0}
  m_EulerEditorCurves: []
  m_HasGenericRootTransform: 0
  m_HasMotionFloatCurves: 0
  m_GenerateMotionCurves: 0
  m_Events: []
