%YAML 1.1
%TAG !u! tag:unity3d.com,2011:
--- !u!21 &2100000
Material:
  serializedVersion: 6
  m_ObjectHideFlags: 0
  m_PrefabParentObject: {fileID: 0}
  m_PrefabInternal: {fileID: 0}
  m_Name: comignolo_pulsante_diff
  m_Shader: {fileID: 4800000, guid: 31f5ef81e1c5045c08fccaba0451f912, type: 3}
  m_ShaderKeywords: USE_MAIN_TEX _EMISSION
  m_LightmapFlags: 1
  m_CustomRenderQueue: -1
  stringTagMap: {}
  m_SavedProperties:
    serializedVersion: 2
    m_TexEnvs:
    - first:
        name: _BumpMap
      second:
        m_Texture: {fileID: 0}
        m_Scale: {x: 1, y: 1}
        m_Offset: {x: 0, y: 0}
    - first:
        name: _DetailAlbedoMap
      second:
        m_Texture: {fileID: 0}
        m_Scale: {x: 1, y: 1}
        m_Offset: {x: 0, y: 0}
    - first:
        name: _DetailMask
      second:
        m_Texture: {fileID: 0}
        m_Scale: {x: 1, y: 1}
        m_Offset: {x: 0, y: 0}
    - first:
        name: _DetailNormalMap
      second:
        m_Texture: {fileID: 0}
        m_Scale: {x: 1, y: 1}
        m_Offset: {x: 0, y: 0}
    - first:
        name: _EmissionMap
      second:
        m_Texture: {fileID: 0}
        m_Scale: {x: 1, y: 1}
        m_Offset: {x: 0, y: 0}
    - first:
        name: _LayoutTexture
      second:
        m_Texture: {fileID: 0}
        m_Scale: {x: 1, y: 1}
        m_Offset: {x: 0, y: 0}
    - first:
        name: _LightRampTexture
      second:
        m_Texture: {fileID: 0}
        m_Scale: {x: 1, y: 1}
        m_Offset: {x: 0, y: 0}
    - first:
        name: _MainTex
      second:
        m_Texture: {fileID: 2800000, guid: 0e9563479c7b1466fb14d04d4f8080d0, type: 3}
        m_Scale: {x: 1, y: 1}
        m_Offset: {x: 0, y: 0}
    - first:
        name: _MetallicGlossMap
      second:
        m_Texture: {fileID: 0}
        m_Scale: {x: 1, y: 1}
        m_Offset: {x: 0, y: 0}
    - first:
        name: _OcclusionMap
      second:
        m_Texture: {fileID: 0}
        m_Scale: {x: 1, y: 1}
        m_Offset: {x: 0, y: 0}
    - first:
        name: _ParallaxMap
      second:
        m_Texture: {fileID: 0}
        m_Scale: {x: 1, y: 1}
        m_Offset: {x: 0, y: 0}
    - first:
        name: _SpecGlossMap
      second:
        m_Texture: {fileID: 0}
        m_Scale: {x: 1, y: 1}
        m_Offset: {x: 0, y: 0}
    m_Floats:
    - first:
        name: _Alpha
      second: 0
    - first:
        name: _AmbientPower
      second: 0
    - first:
        name: _BumpScale
      second: 1
    - first:
        name: _Cutoff
      second: 0.5
    - first:
        name: _DetailNormalMapScale
      second: 1
    - first:
        name: _DstBlend
      second: 0
    - first:
        name: _FogAnimationFreq
      second: 0.1
    - first:
        name: _FogAnimationHeight
      second: 0.1
    - first:
        name: _FogDensity
      second: 1
    - first:
        name: _FogEnd
      second: 50
    - first:
        name: _FogHeight
      second: 0.1
    - first:
        name: _FogStart
      second: 0
    - first:
        name: _FogYStartPos
      second: 0
    - first:
        name: _FrontLight
      second: 0.7
    - first:
        name: _GlossMapScale
      second: 1
    - first:
        name: _Glossiness
      second: 0.5
    - first:
        name: _GlossyReflections
      second: 1
    - first:
        name: _GradientHeight
      second: 1
    - first:
        name: _GradientStartY
      second: 0
    - first:
        name: _LayoutTexturePower
      second: 0.5
    - first:
        name: _LightMaxDistance
      second: 10
    - first:
        name: _LightProbePower
      second: 0.5
    - first:
        name: _LightmapPower
      second: 1
    - first:
        name: _MainTexPower
      second: 1
    - first:
        name: _Metallic
      second: 0
    - first:
        name: _Mode
      second: 0
    - first:
        name: _OcclusionStrength
      second: 1
    - first:
        name: _Parallax
      second: 0.02
    - first:
        name: _RightLight
      second: 0.9
    - first:
        name: _RimPower
      second: 1
    - first:
        name: _ShadowPower
      second: 0
    - first:
        name: _Shininess
      second: 0
    - first:
        name: _SmoothnessTextureChannel
      second: 0
    - first:
        name: _Specular
      second: 0.01
    - first:
        name: _SpecularHighlights
      second: 1
    - first:
        name: _SrcBlend
      second: 1
    - first:
        name: _TopLight
      second: 1
    - first:
        name: _UVSec
      second: 0
    - first:
        name: _UseDirLight
      second: 0
    - first:
        name: _UseFogDistance
      second: 0
    - first:
        name: _UseFogStaticStart
      second: 0
    - first:
        name: _UseLightMap
      second: 0
    - first:
        name: _ZWrite
      second: 1
    - first:
        name: _additiveBlend
      second: 0
    m_Colors:
    - first:
        name: _AmbientColor
      second: {r: 0.5, g: 0.1, b: 0.2, a: 0}
    - first:
        name: _Color
      second: {r: 1, g: 1, b: 1, a: 1}
    - first:
        name: _EmissionColor
      second: {r: 0, g: 0, b: 0, a: 1}
    - first:
        name: _FogColor
      second: {r: 1, g: 1, b: 1, a: 1}
    - first:
        name: _FogStaticStartPos
      second: {r: 0, g: 0, b: 0, a: 1}
    - first:
        name: _FrontColor
      second: {r: 0.7, g: 0.7, b: 0.7, a: 0}
    - first:
        name: _FrontColorBottom
      second: {r: 0.7, g: 0.7, b: 0.7, a: 0}
    - first:
        name: _LightDirF
      second: {r: 0, g: 0, b: -1, a: 1}
    - first:
        name: _LightDirR
      second: {r: 1, g: 0, b: 0, a: 1}
    - first:
        name: _LightDirT
      second: {r: 0, g: 1, b: 0, a: 1}
    - first:
        name: _LightPos
      second: {r: 0, g: 0, b: 0, a: 1}
    - first:
        name: _LightTint
      second: {r: 1, g: 1, b: 1, a: 0}
    - first:
        name: _LightmapColor
      second: {r: 0, g: 0, b: 0, a: 0}
    - first:
        name: _MainColor
      second: {r: 0.6838235, g: 0.60840183, b: 0.60840183, a: 0}
    - first:
        name: _MainColorBottom
      second: {r: 1, g: 0.73, b: 0.117, a: 0}
    - first:
        name: _RightColor
      second: {r: 0.9, g: 0.9, b: 0.9, a: 0}
    - first:
        name: _RightColorBottom
      second: {r: 0.9, g: 0.9, b: 0.9, a: 0}
    - first:
        name: _RimColor
      second: {r: 1, g: 1, b: 1, a: 0}
    - first:
        name: _RimColorBottom
      second: {r: 0, g: 0, b: 0, a: 0}
    - first:
        name: _SpecColor
      second: {r: 0.2, g: 0.2, b: 0.2, a: 1}
    - first:
        name: _SpecColorc
      second: {r: 1, g: 1, b: 1, a: 0}
    - first:
        name: _TopColor
      second: {r: 1, g: 1, b: 1, a: 0}
    - first:
        name: _TopColorBottom
      second: {r: 1, g: 1, b: 1, a: 0}
